{
    "last_node_scaling_at": "2016-05-30 01:53:02.365088+00:00",
    "mesos": {
        "versions": {
            "nevermore": "123456",
            "zeus": "123456",
            "mesos": "0.28.1-luna"
        },
        "auth": {
            "username": "sys_admin",
            "token": "1234567890",
            "log_token": "1234567890"
        },
        "marathon_endpoint": "http://1.1.1.1:8080"
    },
    "log_storage": {
        "username": "111111",
        "host": "https://1.1.1.1:8443",
        "password": "111111"
    },
    "mesos_endpoint": "http://1.1.1.1:8081",
    "node_scaling": {
        "enable_scale": false,
        "scale_down": {
            "min_mem_utilization": 0.7,
            "decrease_delta": 1,
            "max_available_ports_count": 1,
            "min_scale_num": 1,
            "forbid_delete_occupied_node": true,
            "min_cpus_utilization": 0.7
        },
        "scale_up": {
            "increase_delta": 1,
            "max_mem_utilization": 0.6,
            "min_available_ports_count": 0,
            "instance_type": "t2.medium",
            "ssh_key_name": "alaudacn",
            "max_cpus_utilization": 0.9,
            "max_scale_num": 4
        }
    },
    "cloud": {
        "name": "QING",
        "region_id": "GD1"
    }
}