{
  "token": "901eb732f3d86f1012377f2f7598bbb83ddf61f8",
  "config": {
      "type": "official",
      "storage": {
          "read_log_source": "default",
          "write_log_source": "default"
      }
  },
  "auto_values": [
    {
        "name": "token",
        "value": "901eb732f3d86f1012377f2f7598bbb83ddf61f8",
        "kind": "secret"
    },
    {
        "name": "apiserver_endpoint",
        "value": "https://api.alauda.cn",
        "kind": "configmap"
    }
  ],
  "values_yaml_content": ""
}