{
    "display_name": "test-region",
    "features": {
        "node": {
            "instance": {
                "access_key": "*******",
                "image_id": "ami-000",
                "subnet_id": "subnet-000",
                "secret_access_key": "*******",
                "ssh_key": "*******",
                "instance_type": "t2.micro",
                "security_groups": [
                    "sg-4955ac2d"
                ]
            },
            "features": [
                "instance",
                "auto-scaling"
            ]
        },
        "service": {
            "haproxy": {
                "cloud_name": "AWS",
                "ipaddress": "0.0.0.0",
                "private_ip": "1.1.1.1",
                "region_name": "BEIJING1",
                "lb_tag": "ha"
            },
            "features": [
                "host-network",
                "elb",
                "raw-container",
                "haproxy",
                "internal-haproxy",
                "application"
            ],
            "elb": {
                "access_key": "*******",
                "subnets": [
                    "subnet-000",
                    "subnet-001"
                ],
                "secret_access_key": "*******",
                "security_groups": [
                    "sg-4955ac2d"
                ]
            },
            "metrics": {
                "features": [
                    "aws-metric"
                ]
            },
            "manager": {
                "host_port_range": [
                    31000,
                    32000
                ],
                "endpoint": "http://0.0.0.1:10000/marathon",
                "port_resources": [
                    [
                        31000,
                        32000
                    ]
                ],
                "user": "oilbeater",
                "docker_resource_ratio": {
                    "mem": 2,
                    "cpu": 2
                },
                "password": "hehehehe"
            },
            "internal_haproxy": {
                "cloud_name": "AWS",
                "lb_tag": "ha",
                "private_ip": "0.0.0.0",
                "region_name": "BEIJING1"
            }
        }
    },
    "env_uuid": "9a37a583-ec1b-4678-bb92-cc5967941ae0",
    "namespace": "test",
    "state": "RUNNING",
    "attr": {
        "insecure_registry": [
            "index.int.alauda.io"
        ],
        "mesos": {
            "versions": {
                "nevermore": "ccff572362ffe72b1fe1efe45b590bf1b10c3df9",
                "zeus": "90973afb4fba18479daea298c66054728982a602",
                "mesos": "0.24.1-1"
            },
            "auth": {
                "username": "sys_admin",
                "token": "*******",
                "log_token": "*******"
            },
            "marathon_endpoint": "http://52.26.219.200:8080"
        },
        "mesos_endpoint": "http://52.37.87.50:8080",
        "cloud": {
            "region_id": "us-west-2",
            "name": "AWS"
        },
        "components": {
            "meepo": {
                "endpoint": "0.0.0.0:0"
            }
        },
        "node_scaling": {
            "enable_scale": false,
            "scale_down": {
                "min_mem_utilization": 0.2,
                "decrease_delta": 1,
                "max_available_ports_count": 2,
                "min_scale_num": 1,
                "forbid_delete_occupied_node": false,
                "min_cpus_utilization": 0.2
            },
            "scale_up": {
                "increase_delta": 1,
                "max_mem_utilization": 0.91,
                "min_available_ports_count": 0,
                "instance_type": "t2.medium",
                "ssh_key_name": "mathilde",
                "max_cpus_utilization": 0.95,
                "max_scale_num": 7
            }
        }
    },
    "name": "claasv1-integration-region",
    "container_manager": "MESOS"
}
